Ides of Machine Learning - Jack Livers' Github Site
…
superdata_workflow <- 
  workflow() %>% 
  add_model(superdata_mod) %>% 
  add_recipe(superdata_recipe)

I can add my model and recipe to the workflow.

Then all I have to do when making my fit is apply the workflow since it applies the model and recipe for me. Like so:

superdata_fit <- 
  superdata_workflow %>% 
  fit(data = superdata_train)

## # A tibble: 36,645 x 14
##    .pred_class Season Team  Date       Opponent Outcome Rolling_Mean_Po…
##    <fct>       <chr>  <chr> <date>     <chr>    <fct>              <dbl>
##  1 L           2014-… Abil… 2014-11-19 Tulsa    L                   79.6
##  2 L           2014-… Abil… 2014-11-22 Duquesne L                   79.6
##  3 L           2014-… Abil… 2014-12-06 Houston  L                   68.9
##  4 L           2014-… Abil… 2014-12-17 Loyola … L                   67.8
##  5 W           2014-… Abil… 2014-12-23 Arkansa… W                   68.7
##  6 L           2014-… Abil… 2014-12-28 Grand C… L                   68.3
##  7 W           2014-… Abil… 2015-01-04 Central… W                   68.4
##  8 W           2014-… Abil… 2015-01-10 Nicholl… W                   68.8
##  9 L           2014-… Abil… 2015-01-13 Northwe… W                   69.0
## 10 L           2014-… Abil… 2015-01-20 McNeese… L                   67.9
## # … with 36,635 more rows, and 7 more variables: Rolling_Mean_PPP <dbl>,
## #   Rolling_Mean_EFG <dbl>, TeamSRS <dbl>,
## #   Opponent_Rolling_Mean_Possessions <dbl>, Opponent_Rolling_Mean_PPP <dbl>,
## #   Opponent_Rolling_Mean_EFG <dbl>, OpponentSRS <dbl>

## # A tibble: 36,645 x 16
##    .pred_L .pred_W .pred_class Season Team  Date       Opponent Outcome
##      <dbl>   <dbl> <fct>       <chr>  <chr> <date>     <chr>    <fct>  
##  1  0.933   0.0666 L           2014-… Abil… 2014-11-19 Tulsa    L      
##  2  0.880   0.120  L           2014-… Abil… 2014-11-22 Duquesne L      
##  3  0.906   0.0940 L           2014-… Abil… 2014-12-06 Houston  L      
##  4  0.962   0.0376 L           2014-… Abil… 2014-12-17 Loyola … L      
##  5  0.256   0.744  W           2014-… Abil… 2014-12-23 Arkansa… W      
##  6  0.853   0.147  L           2014-… Abil… 2014-12-28 Grand C… L      
##  7  0.0977  0.902  W           2014-… Abil… 2015-01-04 Central… W      
##  8  0.203   0.797  W           2014-… Abil… 2015-01-10 Nicholl… W      
##  9  0.513   0.487  L           2014-… Abil… 2015-01-13 Northwe… W      
## 10  0.799   0.201  L           2014-… Abil… 2015-01-20 McNeese… L      
## # … with 36,635 more rows, and 8 more variables:
## #   Rolling_Mean_Possessions <dbl>, Rolling_Mean_PPP <dbl>,
## #   Rolling_Mean_EFG <dbl>, TeamSRS <dbl>,
## #   Opponent_Rolling_Mean_Possessions <dbl>, Opponent_Rolling_Mean_PPP <dbl>,
## #   Opponent_Rolling_Mean_EFG <dbl>, OpponentSRS <dbl>
…
I’m going to skip ahead a tad to look at the metrics, basically how accurate is my model. The accuracy metric takes several predictions that are correct when compared to known results. Kap is a representation of accuracy based solely on chance.

We’ll first look at training data, which is how good the model does with the data it already has.

metrics(sdtrainpredict, Outcome, .pred_class)

## # A tibble: 2 x 3
##   .metric  .estimator .estimate
##   <chr>    <chr>          <dbl>
## 1 accuracy binary         0.981
## 2 kap      binary         0.961

So it looks like my model has an accuracy of 98% and a kap of 96%.

## # A tibble: 9,160 x 14
##    .pred_class Season Team  Date       Opponent Outcome Rolling_Mean_Po…
##    <fct>       <chr>  <chr> <date>     <chr>    <fct>              <dbl>
##  1 L           2014-… Abil… 2014-11-29 UC-Rive… L                   69.4
##  2 L           2014-… Abil… 2014-12-04 Sacrame… W                   68.5
##  3 W           2014-… Abil… 2014-12-22 South C… W                   68.6
##  4 L           2014-… Abil… 2015-01-26 Sam Hou… L                   66.4
##  5 L           2014-… Abil… 2015-02-21 Southea… L                   63.0
##  6 W           2014-… Abil… 2015-03-03 Houston… W                   79.2
##  7 L           2014-… Air … 2014-11-30 Texas T… L                   61.9
##  8 L           2014-… Air … 2014-12-20 UC-Davis L                   62.8
##  9 W           2014-… Air … 2014-12-22 Jackson… W                   62.3
## 10 L           2014-… Air … 2015-02-04 New Mex… W                   60.3
## # … with 9,150 more rows, and 7 more variables: Rolling_Mean_PPP <dbl>,
## #   Rolling_Mean_EFG <dbl>, TeamSRS <dbl>,
## #   Opponent_Rolling_Mean_Possessions <dbl>, Opponent_Rolling_Mean_PPP <dbl>,
## #   Opponent_Rolling_Mean_EFG <dbl>, OpponentSRS <dbl>

## # A tibble: 9,160 x 16
##    .pred_L .pred_W .pred_class Season Team  Date       Opponent Outcome
##      <dbl>   <dbl> <fct>       <chr>  <chr> <date>     <chr>    <fct>  
##  1  0.834   0.166  L           2014-… Abil… 2014-11-29 UC-Rive… L      
##  2  0.939   0.0609 L           2014-… Abil… 2014-12-04 Sacrame… W      
##  3  0.230   0.770  W           2014-… Abil… 2014-12-22 South C… W      
##  4  0.950   0.0501 L           2014-… Abil… 2015-01-26 Sam Hou… L      
##  5  0.680   0.320  L           2014-… Abil… 2015-02-21 Southea… L      
##  6  0.401   0.599  W           2014-… Abil… 2015-03-03 Houston… W      
##  7  0.537   0.463  L           2014-… Air … 2014-11-30 Texas T… L      
##  8  0.610   0.390  L           2014-… Air … 2014-12-20 UC-Davis L      
##  9  0.0925  0.908  W           2014-… Air … 2014-12-22 Jackson… W      
## 10  0.676   0.324  L           2014-… Air … 2015-02-04 New Mex… W      
## # … with 9,150 more rows, and 8 more variables: Rolling_Mean_Possessions <dbl>,
## #   Rolling_Mean_PPP <dbl>, Rolling_Mean_EFG <dbl>, TeamSRS <dbl>,
## #   Opponent_Rolling_Mean_Possessions <dbl>, Opponent_Rolling_Mean_PPP <dbl>,
## #   Opponent_Rolling_Mean_EFG <dbl>, OpponentSRS <dbl>
…
